8c9087B06AAc1c3cDaD0eF43b0eDF7Ba
86b2B5249FdED561E83cff2bfCbbea97
9B118AD53bFbeceb3e6d74a03C6667d1
A8d9D8D9Da5Ded1faae5Fc0Cb2c5fFcC
034ceFf4d15BD4DCaAD5495B62eE3a2E
85B119FE551AbBcA44c421421DF0c9D6
bde4DF5B62dcb1fBdD1AcA403bF1DEd0
feF46dceEF52ad0E1298f5CEc3Bd0bDa
3afD8bDAf7Fb3a7Ed5a0b5cCfa71c3c5
49F3DdbA3f2F7775d58dD1451EC8CcAD
faCfc0CFe89ad17c966fD42E3F63D5dc
8b07835Edec0Ca6eebD071AD7776AF60
Dd0b5801C8CA3E6BDf14fBAac80f90dc
c5C30Bff0b4eB9bf9A1d66fB078C1FaE
a32FAea8f0baA9a9035ABB4Be8D2E340
9eAcD6b08eB35B5d3D38e015Df7d46DE
CC9Ed1020dcddB9AAcbb4Fb31F31ad5c
71DdAe634E05f1ff004b149306B5aABD
7a73Be4d5FcAa704A3F39Dca3Aa7d1E8
a6A3dDf94d54FBfAEBDA1d5EcaD22aBB
2cF7cc0D8F05CF3f9fEb432d44bA7623
e11F2CCaD8b9EdA19E7F6f0EB18EbfA4
D7e1c4949B6B035aDB68A5aBFC5da6Fb
f90A1fa8D3346146CAf4B9D7Bbc0Cf5F
b8dB2EF07ADA22c13daf53073Dc7c06b
a6AA49dD48A8f9e2DA0ACcbd7ec81F75
e5F80b5FB0290D7F5f06B4CE9d9b0E7b
A8bdb0bCbE544bD2eEFE77CbEd353bd5
FdcEDf0EFdD89DdDB46e29EaAcbdafb5
babcfD64eE6c45fBbA69C74d83b459D7
c57DE4bd00ebce9d97C6f6093d2302A6
41f77da27A2dDAD3bDCBdbffC3CB03bE
72aD7efca00da4eCc8dbDceFF1D7C562
8953eFdCBAd1FcCeF1e5faD1ce5A8374
da6a0A1Ed5F1DddAE316bEFF9deB30CC
C72Fcbb5E1Ce89Ea71ECF3cF82f9CaFc
5f0DDB5E44fcDF2E4Cb53de797cBAbE3
CDDdB93B4Ffd22C8CaAc55FdbC94aB5B
18a22C4f80d59F2ddFEf4B8644bac29C
BcDdc71E852ecea80dd5Cc9F7EFb2b88
7fFE8b24fdCeDcCc4F108b4e5aADCEBd
0DA4bf7a213DaC383F4f73c37cfabd9D
b8cd2a0534931B27aa9d6fB8fc187ACA
BCEfa08347CcE5d773Bbd4A4bDC476Bd
6DEb3beb3BF25fA55f48fA016A7BBC87
7B07c72E95E22dB2B9BFCe5a2BBafADE
cE54EBeF66c0DEaf2a6FBe1f6c2A813D
e7dAd1fAcDEDa763C1eE3C468C26BDFA
eddF4514b621FA1F4b4E5247eAAaE92E
89bb4AbD4be9F132bBdB740fdad9dAd9
57f0dE705fb41aBfEE9c6C99E6bb40DA
c0B66B16f5fa28E7a775eF4323Ad1b93
A03b7bAeDCd975D018a8A4F0FD65ae4B
41CfbF2f6b1FA0CcdAfF46A4fAF0f844
D8FA89b44B21fFb4EC172F8a9Da1af1e
1f03d057f8FCbCf9E2E9f15574Ae3906
8Db96400CA5D21EACC4b55DF0B2Fb0EF
b5F6D75fdE86858a392bbB46612C917b
95eff4a2aFE42Dde5c70495AEDe5CaeF
A9bfa0A1a6F131BEc92B063dDaFbbE7d
05AB57CAaE635eFDDda5c1eeC61dAC42
9F95a96D6f62D441e9c6d7D158DDA069
cdFb387Abd15DE4658fCa3952cAfbe73
9563cAC1AbE46f774d23B514EAC3fBC8
1b94bDd66aBEaD8dB589Ff17678DAb17
85A49c6Be081ffC74A482ed68dECba0a
91A4f2deFbFBb7DC48f4bD7c2Ac62bCB
114d3C28dfEDcd45Fc7DdB9ac0DbBef6
B21C1FfFbCeFB27D7E878AE4fc95AFc9
81fEB61C2cAC23Df6Dd0EA7d3C0A1aB1
b83c1FdD40Dd6DD3e2faEe04f2Cb65b6
aBb7C6d7669134C93Dcd03A641AFEAf9
9e948ec1b7B4C5c13bF56fe0c2d9F8Fe
18Cb9d259674EEfBf1AAe45AFd0af9F8
eBf5AAAA3d5AE6b8696D10AA3fEabf34
D4AfF75b9006aEe71F2Db6dDb9D8DD7f
dFbeEdDE3383C227adb4eBa65eDfDAaa
1c11ce4701fEAD733fEd1D3c601Bf8A4
C4FB8C76e5544DBCeFb2E059E8F2D0cb
1C501aF1A3d179AdBee8EDCccbd5B605
2C83b88dCC7dBd6A413d5AD26CbE37eE
30dabB08f0404Cc3F8beDA0f4cCFAfCd
6815Bc3Ec24CaD1CC4711D05CEfdE2eE
aeF0CB5C698e4F03C768e86e0b52bcCA
00Bd2b8fe8b4EE4aB179BBd77aD604df
c2ECC2dc0f5C25c2cdae77e7dCe0e824
7DA2cd7DDd5043f5C5cA6aaae2C2ba4d
DD9aECC8e6E68A1B606f6b1Fab10B706
Fe861CD0d0aacfF6Be5dFD1E28CEfd5b
777aFa2e5085eE214a4c11d1BACfc0c3
8e2569AeFE4D747acafa33E9ff3af1B8
1a6cfDcF46C426afF6Ebf7269E9E3AbD
dAFCbE3dA43E3feba8396fCBafbC975b
aFC34AedF1a9Fe4CfDE0E2F3dDcAcedD
57373cFE0337599B7701aE4Ff03b2FDe
7CaCbB34f9F9Ff7BE0191060034bb92d
98cAc2bf49E2b5E5d9DfFdCB267DB5df
EdBfEEaE1AA58cbbdDcF2bb9c22e004F
CF7791dB3E4eec361c4E2daCbF00D7fC
B5591Fdd672Fec1CCb1bcc1DF15FD38B
aC6BDef2195F15bb873c8BE613568e8f
16FDAdF46Dd094A59BF355daDBAEAF04
d40a0bbdd16Fb32CDCA00Db7Aeda0A9d
Db58EC1d74edCfbF56e3aC08eB9F2BBe
5c1Adec4d3C62dcc30d6Fa9e3Ef23841
0a12d1E6878e6fe34aA9b2Eaac9bD8F6
2Eb8aBDFDe050CeA60B36a9678184cbc
A2a2528Ae0DD3dFa10Dd4c0CBD7F70b5
f30e0dF88ec1C5b7286dCfBc620A97F7
85a5e9E42F2b1A7BB5eE889Aa7eBea8A
Ea1b7673DCEfFBaae54f88fba3f4Ecf8
bf12f2f5986E42f002FfaFE6FdAC9Cb6
eC91D13CfD8fDCd6e6fefD40658895be
1AD2aebBCc94FfA7DecaEd09c09DaF62
65dcfC67E95Cc175b864137ECC915A9b
0cA950bD4fFd6F9Eab6128E75b420CD6
0435565CDf01d03b0b3cBF52e70BFA05
8b3fbDDf44D9686ACa706D6CEFdaCF5b
C0B2abB37F4E78dC6F5DD77C248F74BE
EEACBEe52CB2017e97EC63DbbF7bBB8B
7Db2B879C12509A6eBe2f7beEECF6Dbf
EBAb542EdFE8e7A3853b030bACe0Ea13
B7714ef71B6AD2A3dbdcc1DeeDC9dccB
D348855Fab0EdbbF1d978Ed3F34D3854
10Ae8eD4BC6B82c862Eb6FFf07fAaBCD
FF96FB8cdd8Feb43ee50BD9B4eA1BfE9
cFEcDFBD123bdfCb8EfadFaBCfBf0aa7
be18efaABFd92Bc28691E34aDF7000bd
Fc6fA687eB7ADdb9646015E1775cC03e
bC69fFAED5601f3B1AC51aed935Ee199
1Df6647EEDf976A9BccD88d2D455B908
e04AFB2E6dac31fdeFafd99e4EaeC2bD
0e1E0Bd6D0eac0Ce2678BecF6FAb2E06
ae48767CB6D53bEaABFB4b0473f5ebEc
99CD58e14fD9BcE5bFFb86C6c67aE23F
c7FFDAD9B20a29b3AeFaF1d0438bFabB
8FbceBF4DDBAe4eb2c16AE32CA1788f5
2f4fCfce0330Bf6C7dfCe7F8f25337e6
FDaE4e4a5D6DcEc122E39a6e0fEa6B7e
7f5Bc1AEA1cBccCe0988eaFC7AdD02ff
aB0B896783c8FF292CdFdABCEDEF28ac
7EDD6CDFBede76af75FAAd5D9140F6F0
AeD3e035CEdA79b6faCB63B6D9287EBA
c07ddbeE195c5bE1625bEba117BfEbEC
FF537fc4Cf25AB3Cc8800cDE5Db10e01
53421A97dAE21d997dA45b3c0f56028c
b0CAc5B2Eb974881BbC5e6E8D4eDA534
Aa021bcEeE4f7e751B92CaBC4e0bAaEA
caa8aCEaAbEb90aeF4fBdCEDA5eC0bEA
c8b83CFFC3EbAcaceB6Ea5CD801eB5C2
9E1Ac4a6DAcBC38fAA48a1D3a2FBbFb7
BBE6801ab8ace2BdfcAF89e67eeE2C5E
6057a97b9A23C705dCa2738553B3d6ff
DdD8f9cd6E4BE1db5fFEAED46dFF3bbA
3aFA936faA854019ebab5A0Af32bdcff
9a0Ec94Fdd8Bfe06cA1036B4cb1AFD06
aEeBAF5Ed2bE5dC331AEF46B1F1d4B3B
A29ad3Ae5DC0CDEFB66dBbCaCcb13deC
d01604b71eb0dFEB9ECfCc4BAbA5E306
50A0cAcFa64b1eEDF591FF5a6fc2Cb0a
69cCC56ABe629EdEe25e5b9ef2355BAB
cA99a7bFc15cC6EAD1Cda44CDAdF27c9
85c1dbCD15C35EBFe1b8c1424fbdfCB1
b4D99c2364476D8B8B6abD7608F2Bd13
1Bfeb057Bb0c98Dd3d3bde8a3c7dc34F
CB6737d1BE1BeCd0e95BE3d07AAA7e80
AE15FB82CFaCf236ab8AFC85dFf59aDd
D7DAA60EF44D6C4bAcf9aeA0baAC872C
8BA956eCcFAb40EdeE03f4d89f9594b6
4cEc35ad7850E60Eb841aEb80E8455FF
b49EF37bEF0fdBcdA00165A37B1ea12e
0bbFCAcDC32aB6229c23223737DC3DF9
BCc98a64BcA86D81bfa52bCB3c4d0413
aa745CFa27C9341c3fDFD9ac63A6bE22
DF8e4BbecB0EdD599624deA120fD46ea
41f349aB8976F07f3ffab0c1eb647CfF
034cF7Fe2a0b8e0DA0a0bd7e3bCf4E5f
E2f5eCEbcAee5E5Aecb32aC42c17715D
9810E34DF2e7bbb49CD4F4C35aEBD7Be
d7a94Bc20ac7683aB2bFa2cd86fE4e1c
CEE6b0da86aafdEB2DBBBbd12f7eF076
8d62d07Db5Abf81D80F8dB5d59Bb67e2
0bB555945B3F1dEAd37bc6b5D92596Fa
AAE79Db46CAAd1ACAfdadfFFBEb391Ed
BcFC8eA68fCE734257f406bFAEaFACeF
8CfBF348ffb8DC76aEE43aE9F7fb60ef
363d1Fe4d06e6b40eab11d3FB4BC83c6
03EeBcD61F0B9fefa8c1bD1ed2cD6C1b
11fDF2E1bD88829e2ed680AFD54acb2e
fdaBa4ca65d8eA0CB5BaB6A15B42bA15
1B5aFdcAfBA0Ae5Bd65DD1E8fEe0F8E2
633238A6ca5Bbb47dDcEDef596C59Abd
23a6FEcaA3Bf86F70E5aFE5eeC4FE0E9
215E5e1C2cfcDA27AAfe294851fD02cF
59d10F5C7AEB9922c116Efcc5db6D07B
ce1bdA0eBdAA10E843dAf8e8EE866DB7
67FFff51b8e4FF5eFc5D3A16B0A4CF0c
5cE24FC3bE4c232F53Fd3965a280EFaa
ccB6AaE7Ae65AAB4bAeFb58ff26eFf20
B0A728e2f56Fbe22E8a36Fdc07B1d7fe
14e4B230dDc772e155F0a7c75baDD3cb
e988448CA17E92919e466DD30Ed3Dd53
e0C0B6e4f89BcAD9FC39d7fEc72EA2aA
f2D59dc676eDA26a47ADDA97bfaF25aB
8A7077f3eb7ae6C282Fee0734ecAE9B9
c504c06cDa5A8A7a7E4d5e30ceA95c32
0bcf8ca3a485b182ad3FB51A3fd8FBFc
aeeb4dE16D0fC87dBdD2A477C7e5c4CC
Aa5Ae94bF4630bFa36f9d036a6DE5632
E1eB6F8df8bf2A86731ed5fF85A89601
ED3EB5b8EbD7c7bDD1CBf59D79AD39d1
8dd87EFA44Ab987e594ECd1eEcdCC846
65baF53Ff6fCc566EceaBC5bc0aE0BD7
24EAec0063B142ce2a32b13a14c99E3e
bcF1EbDa1eF486D7babe17D21b571CFD
AbD5A503AC6EF9173Db5A015c7d5A02B
ADbaF883e1CD4ADF70BC28d0DA36E6E6
d6239fF155A968F27156DEfea3eA1cBE
43Eb8f1b5B2c7f93c5A2AAe5b3D7BFC8
8bDad9DDCEbC460E9C322b20E1b80c2F
BB350710BFE330CCCe4FB0C3dbA6aAC6
EEbc13cEfe3a70ad0aeBBfC0C7EaaCda
Bd4ACdA105EbfFC2FA598f10d72e30FF
B9D373CF743302BA783e1B62d07c0dc3
abb7D34cCdddA1e402dd07f34c7DA6Bb
BDdA59781ef4A099f8F5Fc77c4513669
91f30aeFFC9A5DBbcdc3a48ebE5c0Eb8
56cEfDd5C690E5F991fFfEb5B8af5Ff1
fAdfb503e41AfEc3985dbfabAD6734FF
448Dc8253ac5B049feb6Ad1A43bE3c35
d3b6f000Af0E347CF0B17E3b968a8fb5
6c0cDE4aBa047eEeDd812dD04001CB17
d31abfF1baB1eaA96CbdDaa6864Ae259
C379EEF7CCb6Abf904B34487BcB1E6C7
adF5c3eb71d796A0E2Ea9ee2dEbfa3AB
B9AfcbFbb444D9ED3eECE1a95dDAbA0b
69F8e7B6A7B2fcEAE2f85DfFDaAaCCFf
F6e7BeF9cd372Eeba7cF7BdDAcb0B2cC
47634CA5d74293c58614aBD9BeBC4FA9
5DAbCCF3AADF34a7BcbdCde59F8DFBEd
d40F2A5f217FC9EAd090Ec5ef8dA5a29
94fD6405E1B2baEe5B76Ea2DaAa5cDef
2b25FaF15AbD36C1564c60B8bdb7AfFd
76B2d301aBddDcafb161fE70E59853f2
A8F2BCAB60DC76BccB0e8b1dCAB771a6
6F3A00F7D864849b84de6EbA0D0B0971
9a3Da7D267D597f1bCdDE58308e05C49
0BeAe2682871A4b8d68417cFCCd7AA70
05fFCc9eD6A8c8bAAa7CC60b35d4eAc5
dEE945d67d10fBd2c50C31DcAbE3ebac
3DdA07F5A5e954ef4BaFc7efCf1B0abA
bE6EcB75dAd4eaB96A2DFaE71Bc3cd91
1Bd0FB3bAF574b2eaecc186288BCc182
5FAb9AdAB970fbE35aE6bC7634a6055e
6647bBAa5bBe7Da82Cef7E026ACFFfD0
4edaaE3FA31BB5D57A9FA5AA24d3EEe3
DeE10f1A5FbF59B4Cf5aD8D8A138A0C9
8Bbb4DF14eeDF191af2fe062D5c1cdcc
FC45CFe2AD685154CF9c4D2035FB63cB
90d94f145D124EdAFEDc7Cca7A305cB3
aa9dcBe197d8D0E9BB2cBfa965d6a1ef
Ca57cA6D85d6e7562f9238AED6aff5E4
dDbb7F984De53EAf5bB4E33DEEaD69dd
f60dF74a668edAAD725C17BDc50E886A
08b6Be646DcD7D3bC6BaD5b385798c3B
39a0dc846D7a5Fab33e7fF212EedC1C3
1F1Af6B3A0D4815F780Fc31C6aD0b2E3
088e570caE5F653cAe8f45F51DC2F602
ff485D5Cbb9Ecc8b56F0094510f7EEd2
6EBd4b43F36aBA35bB51CeA0ACc23C9b
C11ffA88CeCD46fA7419feedF5C4ECBd
9edFdAcd1962bfdb4cfD0cF71f5B37CF
8Ee31Da101E1fDFd1dcaBdfA63CF33a8
dc5Ef4B1Aa7DD47b5777C226c83a91df
52Df4f63eaCbcB6A28Fe4CbFD0B2B9D9
20831dAF4bdADefDBB9CeFe22EDB02e5
5d2FcE4916D9ec888fa7Ee84456aC80C
edfb3f35F6aC55efba67FE9aa69100D2
cC55FC619C7DA505bf6ea1Fa9bd28D5F
b9E8bDFCe75c7a89F0020E0EDF92BE4a
C9a01dfDb9F58DF26b0b6e8428f6191f
aBF028bc362d9A225b34fc242C005E20
DC8270BE145fDE5CEa806b3fB902A1dC
6fC6429B1b925255CD6efdf3ea7e64d4
ebBC508cd1EdEcf97C9c4fd69297B25D
CADEf6BF96208b7eDcFa2BF2C4aFcdAc
0AFb54c0ac2aaf4b0fE34fedDbAa59F6
beD0daDE9f6feeCFe3feE7aD4DEa8DBD
Cf6D0AFbC6BA4CCab1ea2c0F61d75c1D
dDADc0e71Cc14999ddE99aDD2aaacB13
2726f250B035653fADB706D37EBaeDbe
5FB5FA1fb4f19565E5E204Aacb0BD79B
0b40ea5fBA6f5Ff7A923eF1beEB28De6
e077Dc036d27be85bfa0FFc9C9e3E1A7
4d850E70667fb056502fFc5fBACBb765
e4bDEecb7cfAa90f592fEA202eaadc41
d99cC95E0B37aDED4C81f5EaF4c39fF8
C03f31abE2AFDFDB5FAAd50979f5ec8B
712f1e2ddeC7B46D61406B9cBa06C48E
264d1eb62d227AaFEf8Bb2E4C1EC4EDA
1Bdb4bc3ABBdDA2E46565746EEeBaA2A
6723C8fDefb939dc7C5c8C9bd6d5cC45
f5Cb6af9CA7cAfcdB9C18736F4DDFdFd
6EEDA3fDbaDf4Acf8cBBf45b1bFee408
61C81c7471a1b6D1F29Af3B868adF21F
9888D2c3964D4Acc1D61b19Fd5bdB44c
154E76aE7a8DBFacf59471a156CeD30E
Bb442bBed7bd6874dCCD6a8D3f614E8e
6F8c9F84CECaAfE4fc4e0a6A763DF81a
cd846d26DdBf8BEFdf0E2a2ADFA4D508
754AAc1B80AB1bdc3016ed7FAdAAdfe2
48e0f2aC569bE04DeeCaaaf2FF9972ce
83aEF46a1A5f09daf8C6BFDEB42F5bC6
1efDE6f8EC627853Be7ecffcBABf9ff1
4ae934384f442198BA7bEf1a3bFA3aA4
f2d9fc7Cb1136c167AaDdc9223bB6b47
60300C966E176dc1FEdCE104Fc2A730d
a6bfea3dA1f56F6647a4B3B9AebB5aab
09bDDf7bB1e2CB562F5E5Ee732F69aDf
9Cc0C5BA30Db6Dd0bdD3Edc3C17bF54D
e2549Edbb889eFb94c299fae07A8F9d1
Ca04e273dd023a6E3B70ab5Cf9afd4FD
8eA4BabE89B40b4bbfFd19034Dd8FF7C
9d5eFfdAfb339f1624d7F462460dBd42
725CBb977f4bC2ec97D7496356a2c95D
2823DABD22D2bab00F992dd419Ae9a90
Bc64cE14A21BDC98eb7160Efb6C7D302
e22a5CE05510FB65EdfC08e4Ee30fBDb
61B479D1fd9aDa92F8C0D2FC3EEf2541
0C841Bee6EC1aC30Fed3dd23BCf05B3A
A6ED5cB5caa0B8EcEfeae7e475eAED7b
Dfd1f2dD6CacF9bB64E5F4BCD3E3FC09
96293E73eF350FD59E60B9aD0BC2eaf2
A7Cae094e2BeF1a0d0351C8Aad69ff33
f2db1b64Dc8F9E2B4d8D178c5B3d799C
a672B7aA0FDAC2AAEebe6BEACE373bD5
5DcDD4CdE2841B0EFbc310F69466b5FE
E72AfAbaF4dbb7D597A26d8c8C3eB8c4
10Cfc4bD4bE18Dd749a13cb7a3E171E6
Fd65B9Bc28A5ACc29e3D7E29AECb1fD3
1ECdCd77cad6EE0C2F11d1768dCBbCa9
68b2feaa00D6e6ecBe0bDfb0172eeEB4
a47441dcDE6FC8c5FB610Ad6EC5EAee8
61f0dA2374baCa514cdC6aeA570DD522
5FDdAb6ce53A7f9ec0aD6dBA2Ae9cdBA
aEE6bf28fb6AeBF1E912786C4eE26b57
a66dC99AAeB45C30808f928e3CDCF2b9
25F0770f1D7CB5Dc7CeBFD932EDedA60
1ae8D3eC3E3a2dF0Ec4E19c3c61ab0f0
B448B7eEE18fdcb2cBA3BEfDf013ebAC
fB7C9e5D36eDcbf4bA8De8BeE2E46A32
aeefD49aF3B7Bb531CaC1c26E52c72b9
3cD115BcB2AB519BFd5aAe67FBCfBf1d
DEeB3daf52c63547bCD53FcF9e5f0508
Ad0fE7Dea5e5f5C6862feF6D7DaC23d0
2bB5347AeCdfae79c39AB9Ce5320cC64
AAFdb58AB3b99E60fdaFcaFACdC4b59c
8Acba54E1F6f51913E3CD6eb8E1eb0F2
db921b9B9Bb09BE3bddc2c2e2FFB444a
9354faeE3A3bcEcAADe8eABdCc0d0779
a6dcf663D9eACDfbaf2CAbD8Ef4f4D9C
9Eb65133cCf2e0BCEE81ccC1D8b5A9b2
716dDd2c19866EeeC0723dEcCd6D5eC5
D571CA8AFA6af0A6B6fA22fFEfF1faD1
227CCbfAdFC454BC2D53C9a0fB5A45F9
Ebe7afD5d4BF361b0fbB7bb2f3daccb2
eFbDDeC042c34BCd9cEd8a590AD2BbD6
e7C34854bC7eFeeC9fcEA81e0dec8E58
AcDdCA028E9a4e9A18769d9bd51b3cB3
21bfC67BAA090Daf1dF2FBF6CDaeF491
Fb73fD5Adc6fd25aFF2DF2aabA8ee2bD
0270FCd2d7ecbC62DBD33276DdccaB84
3E7067bdBcbC2de577CB4A3e5A8f51F2
BEe723390aD6D66EDF256CB9A36BDA3E
c5718C2Ca838E21e33dD932d8Bc29Ac3
eD63daBaEF11CAB6fA03D85Bcc648d66
3050179cBc2Ac1dC55d73Df38FD8b7D4
eef73E8137d6379a28bfC6313B5fEEAc
b5EBf15ac4f0e5287B416bA4F3A3CCd9
9a0eBE0ba978fFc74C6f1ABD1F59dEdb
8CEF40e7615706C8ebDE8abD2cF398C9
78bCDdA9bAFBfa25B0451ffEBE9AE0A4
C34CBcEdEFaf34eC0fBdC1bf7a5Cf12b
9AABeD72AB3c015fE3f6Ae16FBdda9C1
aE26Cc5dcCC8CfFC8044a1A2cF59D279
A1B2ff9cD956A93c39140954BfDEc632
c8526D941F9eDA549eb5fcdcEC4bFBFf
FEEeb61a8Bd2fFDBC0a115DfbfCDFcb8
b4F0C97882CD28D4fa0F5E3aBbdFdEf0
98aeec6B076d931a0c7e96fB7ebE688f
5DBB2CAddBe086cBfFAf0B160b6DB932
Be1b5bcc4084BbefD9EeEba33E682ecB
0dB03BAac5EEfEdfA0B4c80D7dCBde6d
C8cD2E6B9c5517BDba9eDbC488E5f06d
cfeD2445f9F2d47E10C6bdfeb8Ba4b3d
fd5a2d9479819ecE0c3eba8EDDaaBC0d
8DfDFE7AD3ACF8AeFd8B12F544c4FBB8
A1aa078Bea2b9BeE2340431e547E3BD6
E80Aa1Ca2fE0bdDEBBFDC48E09efF872
55FA511AA6cdfBCF91a708A1D9a6Aa1a
0d6E780754bAd7AEc2Ca3dEBBAfCDCCD
5F569ABc6245F8078a9DdC6E9f4C7BAB
5E7C7bb3aeEAE6c51Dc23dCbc1099670
E400E61b357c4Ac20dBb6f21A115E6C0
61B9906aDAb77bf8BfbfFebBa6EfAE48
FfC581cA5C0647Dd3CCfD5A2aDC0EbaD
80341cdd29020Ef77Ec9704Ed1eDc15D
dCB1709fAd5FAaEb24EBce09cDC4ED9A
2dFE57c5babcBce1d1cddEFC65776A76
94caE71d4aaAeE6b2730c38e8EBffD13
5F0D8E39e162bEa8D051CF3DDA6F76FF
4A5fE38F78BD7ca18A400FA5E6dB4Ede
c9D74f53eBfc1fc5F201FEeEa4a7a2fe
7fC15C08FDeF8F6f9BbC77E13e9b860b
cEAEa3a04Cf0003E74E8D7e7aF409F8a
e97caeBf9bD04fAA681782CBdBFd5F40
5BEa5e023B6a4f6b9C1d837f674Dd6ea
C6dF4F07A5872D8b1A0c6875AC36Aa81
6e313fc5ACcEAcdA1e4f7AFe25aA989F
a0690b764E5AE30Fc1b19fA66bA6bcfb
6DfDF0226F153e90Ee886Cf7a0CEdB6F
FE12aB3CBE2CD7D87eac4fc50aE7FA84
7cEaA5Be330bcAc1EcAe33bD2C201c0A
EfFf9aCF64Cd3bae2CB1BA5Ef84c4eaC
c0D48BD5291BC7dBFfbF9810aE8689d2
fF9cE68754AAa13e0693eb4B3C3c7DDC
aF5bfABFFbe3CaaE0CAB0dbAEfdDAe3B
5bae777ACDD77fDE4827BcAa3A9A1CF9
566BaF57F9441d0c0eB90eCA64F7dD37
19c5e3FecAC6a9554DAfcAfdd53B08A3
BB6DAAff7c21b9DE0E45C471Da7cA923
0eab30c2aF3AbdE1A57EF53309e9ECf9
635dD90E53b9eb24CD581FDc68E93B4F
eAeb63c31cbD4E9E4a19C85fb1eEbc10
0c4bE5a359fB53721EC07A40b3eDD1D3
AcECa4aF25C34f1d78aBdfFdf7BcFAe9
bFBd8766Ff9fCd4ebC601dB82e9fEeA3
199Bbe35A7BeA7cF0F6a37D1701f12bF
a80b935f417faa2368Aec5C49Ec44745
3B92FdEcCAa2ABe75FAe5db1524Ab9AD
C22dFf6cccd917830A99c9C7fA8a6DD4
df1e1bb0d15c2A05d3BbcB7B8B7bdCba
E3Fc6D8dca7Cd12dfA159e780d727B35
B68ECec19cB54d51EE3DaC4a20453F84
efc5A6c6f43efB4A781Aaea7130713E8
6e065FDb0511EA1FB17bFCCEeF3a5d7d
2DaEb3dAceC6D80e4ABd4A84cB8Afb18
aCcb87Bf5a15DF963d8BEa4Ded29e6c9
53bF57d7c593fA8AE957A4a8Ef2dEE6d
dccae8E3151eBC5dDEDD7DCCad9D64EE
Fe7cC5dFed0add0F2aDeD1639cdc9A91
a3C2BE9D6F7C96f3d8Ce2EA957CAacea
d796dC6eFd00fa8857aCAE90bd2FaEe4
C3dd41A9c8922eB26C5a6ebb692403bb
eDb8B8288D1dFcDCEeBb3C50a2eEB390
0cF32ACbeAFfAE6B5Bc8cd52B30A5DE0
D7dC9e22acc0a5C71AEdCcAFbCBAA5e4
709ac0E9Ac9af57eCBaDeefEAB935b64
69d9cf5E0f4d972b1B273eFF1e868631
d27e355d91a1bCdcB4CEf9ee1C6E0aBe
92DB8E2FF9435acEcf5Ede74D4694aed
a959B7fE38BC75FfC0aae2E2b0bfCC3d
a041d5aba6bcee21c6225DFBffa9a17f
eD214FA9923D739a029aec5Bdd42eA2E
5BCEcD8d4d8ABE021f5FeFAe5ac21eC8
cbd11abDdD27d9A64D8401cDA94E7d7F
4AEB790533145138baDa6b7E9Ea1BCB0
164BE271901CC2E106A48b4ebCa75E76
cFFdeacd67fabFeB471FE31a20bE9bC7
c58Ed24889D0cC89DcFcAb055912Ba1D
90Cb13DBC365f05d5B271ECb6d4444B3
2ad7fEf9EcAC94652aAc9C996FEAD0f6
EB48A645153C6AeEaaaE5FBB1f3B27E1
eEdEC34a14aC7f9360aC8FCEE5AEDF2c
aFfC587eb4b7f4C9C8e7E1F008C67a58
cEbc7D0836580595eBF0eBBDC658e7e4
b75E46C8B741Bb4e6bDAb757716e4761
b9644C3B51Ac43A4a75d6a230fA9ca0f
6dC19bA3D5faBb0daA025DAdFdf04f7f
Ab84b06fEea57BB09dA7aeFCe64f0812
F6bb5EDDCf2bdDF28bec2719eA784CcB
fb13eC71dBE01ACBD7D3bFcDc8b898e5
dAca20cb4D20be613d33faB0CdFCe033
413E5943D0D7cFbbbbC26387aD90655D
Ad2e2C5feb8b7Ec546FC3a2A5A285862
EefF23a37A02dadfa87CfCFD5a45e8fe
955EB3f0c5ba04AAf46BEAC4bF9F8aF5
a2EE6AFEEdAf0143A8C81dE496f3efCd
C8cEcaeab7f7DF74ECF9e473aCb2ef5E
acA5Ac536A4A27FDCeF2afB9b1a1ceDc
76d3b526e5C5fB9A2AfAABFd9c7C0B83
b94B77aCE2c5644AceA7aeBf40a94fE8
A1AAf5f76F5AC4C399fb8Ba2c8f697bD
ecdf5C812efC5AADcFBdC8Ae5de01483
EA5f5d9Ea785bF947097fc6fCFDE4A28
4f9EAb2D59ae4979Dfd782E3a99370FD
C37dEB2dcbbBcCd90451F68CDD995002
F1C7463Ed2dC465DB10A8fFEe421982b
F31dF8cD0C0fbdfaa8690eA5954AdE2e
e998cB5b36aa60ac0B3DD3e86e1efe91
78F72daA2c9e4A7353667bBB5Ec8C6ea
DddBBDF579dd1D717ebE5B32bD1BA4b0
41aFA3Fbcaa4cc5A2114d94AE97a60ce
940AbA0Bbfa3D2d4b4153102D2347be2
F606cACB9DefBad4602781aAEA2f0E05
6EF0dB379f5B2Eff248Bc39A2EdDc08d
aafD3C4eE4f2fEcb20DC319a4dbCf402
6CBCc72CDEc2aAf1dACcaACc04f4B20F
b5D91DADbDFD4Fb3E086da49B281B618
4e63E23BbD14dF9DcDB6f9eB44bca745
3428FC23B62eaFA5b3F6b0a9b8BB1b26
60BeD6d7bbC4efDF742DAaA89353C722
b4D68c2BebceFDA296d25e8ed47CbECd
3dEDc8a5d64Ba0110CFa02eFaeffb797
90E6dfF3d21F43c441d7Ccc9EbEaAE4A
Bb0aa4449F7A246f75C47D69f93b63f2
c52C2BafF33baDb6F79ce794Bced5E60
d4aC6502eEbE8AfFDeE0bad252fd204a
8C805D83D1Eb57b34dB8C7cB250BD5E0
B78d6F1eAB95FAF8448A3Aa461cfaEA0
8bBBceec1abC906DaB612B523fbAc247
E83cff418F17C5dB3c123dc131A7f4A9
bfAAB4eFcde15f250aAAf1f3C6cf8eab
BAcf2ACc5326D2Fe8b3b9BEa1f4EDBC0
2a8ABCCBD67dd4CD34ef03E0d85c83c2
0D4fa84BAD70eB0f881131Fa364B0ABA
17E8cEa546c1b4Edbf80Ed6fc551aC43
e12c8642d6F4a5ED5686cC40aEAd88F3
01aCB77EC8De30723C883c7d232ef3b4
e39d8AAC6a6E7eFbf798E11B0BfE4EDb
61bbFEeadDafe48bBCE0f53Fbc3aac12
Fc7E3aeB22a9Bf4a9B0e22c47cC9eaB7
33fBFB99f8DF4F52CFa94e1DFDc2B9f9
f30433c15Dcffa8B5163aa09bF32ccbC
EDA3fAeED7aEEBa0b7EC9f152EEbA06B
acf13E82FEeb0dAeEd2bbF8952BAd7B9
a25cF0Efb0f1b4ecAEdf571BFB88Fcff
05fbE16ea3b8Ae76dAF9983e0cc8fb4b
ad9EDE5affE1b1D1fD3C7F206e6eE16E
2c612EDacFa8DdfEf9F8B9cCaF72aAFe
FEcEa400765FdBeD9BBCc2dd87A58ec7
3B3Ee0C4eF47AFB41aaac7ae6EDE711f
a498AeDFAb60FfcaBD4e4dD5abDa7a6B
E1B7eeE9dCC9008a1ebb5F44256eFdeD
1AeeaFF7fFe89B612ACdb20E5F62E9c8
EcDd299ce72dc233f8E89926A69Fd1BC
FbefDfcD9dB9C114a9d5cA3Bc545BaC9
5499Fcf6B0dDBA7328Cf835b599E2BeA
eC4d6ABDe9CCCAecCCaDAd9BAD0EEd5c
62b0f5eFD3eD043A5aC370dA6e6F2695
F6dF8d7d03A37bF87ACE4ceAA326e651
59BD82Bcf06372509bdcf39fC48bb1b2
eeB8efFE73ae8bF9364eEDf5d1Bc38De
fC5BBB67eBbf3d464aBE91bbE681aBeC
36069f24ef6C1124AA43F0f08e156E41
bbA8C66fb3fd898bf98bB1fA6ba8c4C8
Aaca5aed4D9Aae48b4cDAcBEB550a1e3
a45DD93a9C6D3D4A3862C9Dbe4CC4Dc5
0F7b8FcC8Abdb805bde23d250dD3019c
6312B9bC9e7559dceA2aeC57acA4D9da
F23B4FDB48579dea374Ec78F7b01678E
d8BF66B39d4F9Bcc2AE13Cbde726875E
fd8925E2CC3aadFBeDcfb2bf93DD8Af2
0bb87fDFDeB0Cd44443aCeDFc5DAA3CF
AfAfD8BA9b0F9dEa51967Bee4967B987
B9BF5bDD0a4Aa38bCc9bb713Ba6dd139
5D1db33AEf4Bd5C40Ed658BE91Be3526
88E5e176B4aC1DBe5e665f380CC30FfB
c06fbd3A0cA64C2481fc0eBce5DCF33a
0bBdb8cAc30aC0947AbA76A671EbD3be
e8Bf9331dEB4D61b8C56Daf43b8f7BCc
56cE0b0766092DFF43cBc6e2Ec2453DE
7A5E9579c318e099faB08f1FeC3DCfFe
9aFbfFbc35002b8c0FcFB7FbdDC7b1B8
BBDC9af0662Fa70198DDAC30dba1E868
e1eCB9dCDaeA609F0a5d2c061fEe5af4
D3916D498F6D0F57D92ecfD0E0A5e5Da
eFD58E2f75ff3f33cd12FCF2D4a86Fb7
C6cC7587B3fcf2AcBB7ec7ffEdbBF5ac
Da4c52Ab7eF52ed10cA00f8DBE0D50eE
1ACE3E946CeB679bbCD10EFc242c403f
72b645bBfB8a57AeCBecDdD59Ef67BeF
6905Daaa7eE52bDC6571ed2B39AacA09
7a1Ed6EC21bfAB48616Eafe20BB6cFc5
b304f577fDdDC6F8A2E61Bb24A6aAdBA
Af6Ee54Ec64d86d7Ee7cbD41Aace5c08
F4Db67eDfdc2C53D827024ECCcC3dEDB
57F6CE7c752fBfE94Fb58ed65A30B386
39460A5f1E3eE91d83dfEEd091f96F4e
84dFfb1AC45c593C9Ec364e2E4dAa28d
e88dC9E18C29636ac499eD4eA6aC5b29
3F98dCC00EA1222F7Be78a4Cf7aDD3cc
aA6684cAF7eAeCE0D1eDb9a84C5D7b56
7E9FAC51E5ceFaCFdbCd753E7C19543e
84f26ff9B54d478D7C60b1eBD8fbc3C3
50CbEA02d4E546BFcb48AcFbBD817F9C
be462bBabC8bf8eDcdAECE7fadc63edE
8d14FC7E1ee10D0c1a97aecef9D6CFdf
F19B93cfb86baeDadBAb2FE250E0CBa6
75bf9340a25E96da71bA6EDf44C3AAD2
0Fad0b8994DFc3C8BFddAC2ACa24c49E
DFAFa47cbA76ceA3a8EAF9FEfEd1F80E
Cb85f46eFE99dADF856dbbDDa0beAC5d
4a88dbE09E53DBdb80C5C65c5BEb4C02
2aFa0Ba7c0BeA4C2Be334CedB0ec96C6
92fa4e6b6bE47DeedBbcA0eeB44ee822
Db58D4acAC99BAAd1b1FF0bf640533C8
a0b646f4CFCA947c8EfCf359BAaF8c75
bC5cBdDA549E6E17baBABAf2687848bc
9247aAc33A8330b50c981818852FdB69
dE08acE1F7acC8E7CbEDDcDeda6DB4b1
AF975A1b1F2C7B5f931A8CC0Fa1a6bBd
91C17E2cdC8d21Cd37199CCb35E7A89F
5fD1653643afbC7019bdE7914BCbF786
41bfce52cFF4f80cb98aD86daE393e30
40c1Bab5EFa9A87aaab8dBE023157eBA
c4FCBaA5d983dE83fF2FAFfca4D228F8
C6c3A1B8e256FcDab2cD27eEFC7BBD3c
A7b7EDC4FFF90A4d58ecBE67E45e7Cb8
8d3d3D1C6cb75BEEaC1BD56DA821FBfb
f9E5Cd3da7a01D18Ef2EccaD3Dec4008
dCeC8207e6b7e11C5dDf37eDBb846c34
5848cfcf1f9c6F34FBC1d06c0C3f43A4
1d32151cFaAacCCeDdBAB405d427bEeA
CaDF9376F5ca7A0cBcbBCCaBAbA9E9fc
72b9B9f2CcA5ef380F062ab03C70598b
0494B87fb673Fdb6A6c141c3bA9b97B1
3E1C36ACeD9Cac9ca75E640ec97a725F
E57A0dfe2FeccfF543Ff3eCdbC9eBfff
2b96AaDCF223a6e8d3A0B543BeF97aA6
20ab690C8cD8F6dfeda8D871aB1509bd
60f8Cc3EbC58a3DCee0CecFcaf3F308e
ca1F6A5A7ec5F1a40fbFa2fABd5Cfd0d
CEefc3bAB0feE76869602E0aDB407a13
EBFbDbaFDFEfd6a006dc4bD8AE1A6aA4
855300CE91DF4F267E80AA0BE42A9b71
d4Fe4e24300BF7e1AAe7E6C55dC29EAa
471fc66E66aFBcfBA63BcC1DF0aD0Ff0
eeC500EdCae9F3f837Ec2A01b3BEA9E0
C6Af11af1871Ec292c70A96b7Ae8eDEf
eBc73CF8C53354bFBdc069a27a6d9fF2
e9De35a334fCcAB9ABaE3cfA2AfaCBa9
d3c39f3a91fBDfB5dA6B1BC0c43aa285
6b29DC4221dc40b5c1a1F768Db73FcE7
Ae1fE690e3ef9ecf3e1B584ee35a8Ab5
1C233D595afd7a57A6FF11B78719480a
1E5Cc0aFd20d18B3a7dC27fECa18EDCB
6dfC06aE8eadEC8f2CFCAA90EA0422E9
dFCcfDde388B4f87337F90b1DE40f457
A6db6B9f3fAd4CCe6f1CFf07EFe38cac
ffDD8d4F97DBd4b0A3D86D64cEE8509b
eC91bBeEddcaE209Cf24A28E4C855879
4Dc9a4cA4497d0DfA2C3F1D2A0DDcDf5
b94d3793cf4bdcEDa26cBCbcadC93cfe
34EFB97FC46DFAabDBBEDEC5D9AC64fc
fB03cF9bdEF99D02EE788FC4902fc47B
6defaCbB847290d6Daa3aBBdD95Ab97e
ffAc0D1F2Dec4Dec1b29b5Ecdba4eC11
F1FeD38bCdbbB231fBA6F623762A8acB
8DE8dFBDAB122f1eD7c7F2dBBBBEE0B6
9d7fDBfF2CA72Ced1eFA15907FcbCfbb
1f9a6aa037C0D5A4AdFc60833958F528
858e9Db4B2B28Dc2c2Ac72246e34e6B1
FeE4CA2eB7Aa43de7e2a08eF5e509E60
f6E11710ADf0cB56FD55cF8dFE0c1F6c
FcAcBd4C33bebc8Ee9Dee2f0CDCcc6f2
598d2aCDe6f9ded9aA7afCCDaeE0aF81
69BB6E8eFdAcCD8E73744aCb4cAFa855
b44E0ffF1Aea1ACBF8A1bc8300f2270F
9c41E4adB6ce8dBdd0085aDcDafbDAD2
ECCcb9a454afC1Fc10fc7B15C075a97B
f83FD6fDfa33eC7eE4Ffc1eF9Ca0c2Ae
77ec52B1FeacdabfcC86fDAc4AbdF1f9
7c2cCdFCDeaDa0D28F11Cb6f7638E8cb
D6DA74C27bB1Bac0CD57Ffc8Df27Dc02
1E9Ab95213E90Af03eD48CB6E98664D9
7Ede8f53C269A4f8a84fAaDeC3D6b9B6
fF40Bf994fbbCcDC2Cf2fdAAB6eEf2f6
b82B764dFeFBD2E46bd7DD51518908Cc
373Ca0aCD2F010fF5973BfcD9Dd4b4A7
E8e104AbBe56B5DCa04bc2BACAcf8d43
66FDfFFbFF9D15EaFCfDaa6F7e7E0efa
81ce142e4A6a8bB2Fd2CB77FE6eDa7dA
36b73d6Fc7A7fB8DfdE3c91Afbfb31C7
1148295FD7CaA3cb0419EbE1955f22eC
E9ea2fF2Aebf74bA9E297Ff87a84d3aB
FA51AAb848356cc9D01d0A96878FC6B5
ccfC5CEf0337cEaEea017Fc82DBdB057
aed438B45fA7DbaBCAeab98c9416dB5F
2E745AbCeF44c6014CEeAECDe86e054E
82E38898BEa0331e33bBab2F54FEc0Cd
7E07fcbc90acC90534DFCf1a9dAA972F
2ef7864D1CDd33DBA08d1FD69Bfd2C60
D109b17817ebb45ecD48D15c6cCc45c0
620B47AfCDef6Cb0E63DFB0AC6DDfaa9
286c5cC42bd9eba94cE465bA54d39cB2
fCcF4f5485c0BbacEacaC096ea3490Db
b8F6183a2B38bf76Da52a3053DE4Aee5
5f21baAe4396D1F9434d5192ebA02086
5b9175eaE60f63cdff04AECC4Dbbaa51
F6cEbDF74D68832f4b9A3E9b774a2b11
c8BAa14ece28B928BfE71be2B6E7a76B
05af3C1149aA9eC517eC618dafDFcbBa
9e5dedF1b4deF7C52350BAC46D8c1951
3Ea83CC0561b942Af1E7d5F2941b6eaA
E1B4ae3Fe0A0bdc123d524Bbcf6a0fdB
5a4B6E7754353DbDA5c3410592CB9cAE
dA59eA0DdE9A7B4dAA4BED66101C8B30
e5E902BEc90aAbC530Afc9b08dBDF84f
fcF7ff349cCB63bBC8cfC89E0EF6b4f7
5D0a5CAfA26ca797EcA52C1Ba08F07eD
B412b9Acc03b02Fd3Dc7f769c58E3174
50497Ab56cC36E02eECB617FA76618DA
114CD60eFA94Adc74A29b2daA3baCBba
8328eCee3bCf4c9342c6F78DCDEf4e30
a5AD3C6bfC4b1Dd0D70Aa6BEAAf90d9E
9CAfa616c8947272eAE0CDa84C73575B
2Ab3d28E6F9c556d924b23b37Fd26dB6
6FEbFE3F272d0dEadfdc797cFceaBb5b
e295CDdbB3eFbCa9bbF164BBEb3ce0DD
3c19407Bb3b4Eccef17ceec95e947B81
a2b0792554A501AfaeaEcaDcF0addA7b
1dc72f564a26FDAEcbfBebd9EA35FcB4
dAd18FCb24f18a28b4A7eF0cd82CFc5f
775d3Ea3fA5DD97efA8FA5dFcDDF0986
BBA5fc1BfeBeE5bD75386D7EC73f2d8B
f5f29c8F32C5cCaAB6caFAaEcBcdBEAB
F581Ff5f1613c6C11FBa3365BB04f995
CccabBB3CbB6D37Df9add2EbEaD6070f
0b2Ca1798bC0e322bdFD8A2e38a62355
d2A27038d2eCf4a9BCa33afE787Fb6A0
A7F65adaEa6Ad363Af1c271b2A16A7ea
1A45EbA19FE655FfEECAdAb24Df7bAEE
2959f5cE4Ceeef789DCA7142fEc4dEf9
D0DcdbDFB1D89E92fCa3128E81DCD8c7
8AC023F0DD9FDacc09E1CEac710B15A6
B518ccc2C9ec5fFDA6A66eBf18b0904A
E62fde8CCb1eBe8497De1B14Fac5F05d
A2F5f43fD9ca24F82cdfE974CeE55516
C8D7bE1a7756f8F1c3eAC811aAb8021b
67c993f8420ADfCf67C1AbbC2c1dACac
2aef9adefb8e0074dC47F9D2beB7f9D1
ADFd7E3Ddcbe450A7F47e1f78c04c9ac
d0Ef7C8f48eeA544ee25AfEE4F96B8Dd
01df6fc1F26eFdCC69Ae1cAc0cF46DFE
319B60C5cAAca650b0bf1C77f11ea7DB
AfFEa451EFEdc1EDcca69cbC5a6bCadA
e1aeCbE2dd327fC7EBe619fbA0DbC372
693dA7dd12FfDdFACb9AAEbd7FD919B0
9daFbEB493692c1F9b6da58CB2e0CBc8
9dbbdF95eADBCfEabe2a1aC29d3090e0
74bE465A7440B514F4af6b5Cb994e97A
dAbBE0e76eb1E6e3c4EdacD9cdcCEd44
Bfc581de1dF75cFff6c8dA6f36b12E67
4B78b6dB6f3e958aa5aeAC8Bbcca5Ffe
D33EBAA0dEBeFA7f64F8a65c63BE2DF4
15BE9FC7D3bE69edfcDB5e922A42B33E
DFba73E96Cc0CC6Fd2DB55Bf071ECdCD
2b3DB7c17d9aFb8aeCa9b0aEeAD560bd
2c03FBf0dbEFebD76B68C65FFd8Abfe7
aFFEDce4DCc2e01C1bc0CcEdE4663dfe
80fC5f71befBe5EAFbeCFEC34C28aFE9
7474Bd10EE695EAec30f09A10abBCf22
E0ee2B1Ea0eBB7D148D6307eaa5DfEed
CfF83FECAdD48FE655721FBf46e6CDC9
5F106EFd997C37bE3c7fc7ADEf17eAdc
440883ed6AeDdADfAF62dfaee9e1aF0a
184B02c6cCb3B08e50Be301cCcD790CB
293c4Ef112dc9845bf6E6dE62f6711Bb
Ba8B1eD6c3b256DbFb714d9a1DEA4A4f
928DB22Dd3926FCABEebfc5fB0bDbB1A
8d8FDE7aFF6ec00c575D109ea3E93A55
0b9B856Dbf2dac9cB2e1DD3df1dd7b8E
A5F0fa7cC064Fb424Cd613Bc7200Efef
766e6cae2deBbA2DEFCFcC5dEee41Ba9
d7Ee7C0310a95FAd772988BB09f5c8B6
DAac2b3EC29b25bF473fEbDeeB2C78a6
3E3dba12f2Dd22c57cB919Efc320fBbf
7C0Cf1D72f569f4cfAFA4DCDFb41ABDC
564d01c2c4fAbCFACA6647C50Ad6ebD0
6AbB9d7eD54A52FfaAb4cB1cAaf92Af9
6eC3d064dE14edfc87eaddCcC2fD873C
959fA4bdd78Cb4cdF195b6465E03354D
DD5F6B778bc69fFab26dDE5814bcCdDc
e04E080B6Ad8F5Be1E132270aC1f9630
06a9fCC3DBe35d6eF128eb9A8b6216B7
6D75EBB8748c5C97122CABBF1eb23Df2
A30CC7dE9219Ab25dDb4ef044e75FbE6
E5fa4bE2AeB7ed5c0fb2DBaBCbFACeeC
C8bBB1B461617e94EcF6B2b8Ba56d488
C0ed2B2Ad97f8D37ed1Ac07fd90FDcFa
ef358fAA5b084d5EfEb20e9EbBa06719
aafE42Bb1Fa474b22Ea8EAE816C7EcD4
5f5cA77b9da25Ee8fdABFAD5CCEfeCbE
411dDAE611C9c3D245a5EBcec15C6E6d
8ebf19dC3b6dF118A81abC6BF8e05923
cE99AddCe90b1B607FfaaDfEb2B587fc
6219Cc3F765E21f30FCa7bAAbccb817d
29827bD853Fa5aeEFD18BBfAeAccf4Fc
7Fc6B3abcD286c5f466f12Aa00DCCEad
8d5631Be51aec7fAad87045d17bbA3c3
af29D7366C8C04317Fa31C592BC0E0e7
F3bdd029C1D6cc91bEbf4FffE8cCB029
FF7D32cc4b3f5DbAbB7EBe4d38cbB941
b3bE3999A514fFE0dAE2D44E04D0264a
cf8eCDdeCAF59dc332aca7eDffdf3A9c
e7259BfEEAC2DE80C212aAAC0fc35eCB
42CBb3a1f8F9EAb8c8345d4069eDe2DF
1102D1C529E4C0fA6A2b6Fa357f595bc
4AfE4a94A03F3c247A5bD80CbcB2dafA
A5DB63bBE1b06056ddAcF6dF30DD9682
aC9Caf7528EbdBE94Cee7Ee67efDd46b
CFA2f9bADBdf36A8bddFebFBE770bDee
dE6Dcfb238aEFbBe31aA7481cdCfeaDF
F5999fdeDEb85C2bd3De3dFeE6BefB93
afbAea9aB2C258c64D17b7F3ad2a900c
68a26AAcecbFF5EAcE5eC9BE4C699db3
7c6F737DA3065F878Ee1F05D9dcFd7aF
Cd6Ac9f1deeDda0DB4dfEDee3FFCa37E
6Ee3fF4FFC9CB17C4cF3C68d2Df2E80c
ef3B75593f6F9ce904E5fB5B6Aecb743
aD4eEf69f139D770d7B5f475b1CD6AC9
DCe8B6ddF0DF12FcFb3Ea5d42A21aee1
1A686aB43E046EE2BB0Ac6CdD9dfC7EE
9beCfD1dcc4e7CAed408dD1aeffDDCcB
706CA4A9e88E2bA3af263fb3Feb3Af91
1Ee2FAcB4aDA4A4fBF8F2CFF672f0d64
b977C4e74417BfADA8fAD01aAcaDd304
Bfae2A329Bb263d0Ac7EfFAC03bc3eed
D4fe541dD85BBc8Bed2aCf811BDd66aF
DC3B4dA46CCA75F23dF7Ac54Fa57Fd46
9A4ec14CA724C7cce82a26d38E75Cbca
C6ad738fECeF3ff3EEd38704beB787F4
387e0d66aAe0cd2c4a3Aaf713DeafDDF
ea539dB6D0Ef155e1A4AC7BDC73Ea29c
4CDB7beaCcAB6aC1AcAcE4f67f0EAA7F
DCA14eF1bEe66aaa5AEfbE5daCbAd1ff
7D3BA97dCAD63a9DBE20ffac47bE2B20
A587fa9919C86f3CF0a6FEADFaef847b
04d57Dc9a59dca589aE7BCcDCcE2bb7c
786fe67F9c4eDEaAa6DC711FFA4c2Ead
13c81EDD05ecDcF6AdFA51c6Ac60e5cf
0EfC93f6addbe1D95DB86BE52fAD5eF1
B21B6f3E2b1EaEf13C7a748eF4E2fF98
b6A97e2888CAEcDA5e8E3cc96B5c01DF
ebA1b01BbEbaa8e0DB6745A7FAcd2CfC
9b61C3C876aeB08Ca0B46da8684EE025
A702Ce8d2dE4fB6AEb83dfBceC806275
67113DB69DD8c5A70b697A1e92A0400A
d01756568C34F7abEB70cCFc77e4403C
a8A7dA6AA21aecD7b265747A4C175e72
dCCef5aaaad1eBCaCeabd9e4Dcea3dFF
8CceEaBeCac6dF8E47dE28eA342Fc0EF
19A9e8a5678C8eb0e8C3A937DA4Fa4a0
CBbb52A7510a94c8D04a0aCc28395e82
eaaCC34a225fbB065D5bCeaC004CEABb
51d3dECD01Ce8FFB58E44fef7d750c5D
BD2686cb5606Ec95e6Cca8bFF2EbC399
cBda549F4aA5e98EEaDDeDE97A812FC2
8a3384799078fCC7Aca3eda64Db4Eb5A
7Ae3EB8f08f3290Fa0dB9daeCe2c953B
43AE20E9d47Cacbfc5F42CB1E3f1cF2e
eBe0D6d60C566AF5Cb7cde2f73E3CD22
8BED0D0ea6897F8F0bD894F4aFb650ee
52ea7561dF0AcFB1f332ebA49Ee7F64B
55E7b3dcCcDDcBEDcF7C66cAb82DB44c
b4B90a352bcE81A6292846515B0f7CBF
F8aca1a5f1AEDDB00Ec11C4339587cC3
Ca17dcb10b4Cb01dfBdFffedf278B8Cd
42Bf860E65d85f37E1f59Dd92fdBBEb0
A37d5c8d8D7a79c11a7b45fa2a344B7f
Fd796AdB2f062834fE2801fdE0cd5846
dECBaC07C94b84f1dC4A8FB3F8d3df75
Ea6c6b7BC7Ffb5AcbD2c1C57c90DADD3
cAeFAd0eAFd63Bbf767DDcab879a3B5A
729Bff9bD1463535D3cD6fd0c1e6dBce
3a1Ae5F345eEa567eb7445690Eb76Ff7
352cf224E1F2FcdCF65AdA4d12Ad002A
5fC4CC730CEAE8b5C7B0EC72A1c46ea3
85d04294CFd2f2dA8d7DFe85Bc58AEFB
4D1bdF619f7ED9C3fdFAf1BBb63F2E6A
Cc54C0D780AB8ebFabFFa589Bf944fb2
5c945f9bfe5cc89d3Fe27fb7fD4A74e1
4BEBFfd14d045DCd0F5AC325C1AEcEf9
E3b9e0c6dddAd4D89BbCd2ed24BAdb2f
45bAeE6c66BD4119c1FcaD348B28fe31
6E995a44D8e0aD89143c5e20F7a6dBFa
F4cE88f8AF0fA8be3a26E47fAc37096a
BA5BC93dE05913495EeCbcF52A8DE6F8
37FAbD1d60fFC3bb9Bdb75bb5ba7d98c
dD8C6cFc2E66111DB0A0AEBFAc3fb2eB
1742Af05b85db9FB9Ed7a6de7d3ccdac
9279a3D3c9Ba56E2632a0fEAD2e95f2C
4eD1FbdD9FD5C9345b946e1a0EFF0B0C
cA37eDb23E87b7Fdb7Fbedc1FA1f2F4F
BF2F3B5aca12bc03afd4D00ED3a17f0A
d0fD0C7ebe77eD68C670d4a01AEf98F0
C3D6c8eD707b3A71B9a88EDC31fe0aa9
7CC1FF1f2206aEF42AfADe4bfaa5bAAF
586a3F6C0c09e3Ede7c8E1aea8eBEB8B
7ABABcAf2b52FA1cd3e2E015D5De44e1
eB63df9E7a3593075A540393fd06dd13
D8C2E69be8dAd5B20eEBf839Ff133DC6
6CaC9314f360c46eF0018D61c296E707
Fa47f2CefAa72D4C50d5aEf2913c5AE1
5aFDcd78A4b7FFE182eDB062cdbF2ED0
d94C8bEe75B33ae816E1fF7A3f97Ee48
1fB87a87BDBED031f83db39CDAAc73Cb
Cf76caC3E7036e7dDaE0cDeD26B81cc8
FcdA0aDFde0aeb9c5aaF560e42b0F0f3
af6e7806e203D99eeAe76BF45bB9ED8b
2a5E3AB77fef5FcC6affeccBA5D29e88
7Ed292Ba337FA8d2d4c8e143ee71E2A1
e6f3Ce0F11d5Bf7cA271FD5f3ebCDa9C
0ea09b36Db668bB8B9A9e118df36dF1E
417b9E3A9b44f97c62139dCAaBb868f7
8a17CC9fc4b56BDa9fEae0AfdbB9eAda
6e565Baec3392C7186cacdE506A9Fc6a
B6b2Ecd36D9d82EaB16EBFFf2D8c9acD
5e41CA9daFFc6923e89b7a50C1494AEA
17fA4DED671b6aAeDE59c320115ABD3B
e462EFE8cC992df3EcE4Fd2BabFc5ccc
aD2DcDa9A98ef5Abfde8c842bBDe209c
253827F3013f6f67E7a0EAfE9adA18ef
Ba91a08dC599Dd0e9e85E33F8b7f3DB0
E8aC031F3aeaD06A510dfBC77FCB37C8
03caDBD1753Ff77fE18bCd5FF4bdDbc7
C361d5e5fa63B9b490AAE5C1EcaFa113
aa5Fb2b43c7CEB13491388F5D483Bdc8
dbb6ECE3C45E6bbafb5eba38Efeddc44
E4bfdFAa75f3AAaabaeEBE0F71E2F292
d609BE19E656AFd8A19cadfCf618B95C
f685aD00d8ffedeD312bA01Bda4d8BFb
a3AFDa7f1051020dD3fcb4f5B7ED67B5
89Bc3F56aba19b736970ACAD04C8b33C
4cd67E68Fbb16BEACCFBe8eeCe3d768c
8b0cAEfd26D470C09Df7F9f01b51e76F
4cedefB1Bfe9182d0A715fBf4F832D2F
BbA66E051F0A8F87aff6DcC7319eF7c7
31fcF6bd377E697e5805E0d39F9322E4
B8F28BdEaec1Bd67Fa8Aa87d6Bf9Edab
336A483684eDDdC76d9F1dbd6Fe27A54
6eEfa5ceD0E8221E86bdDaCbac8463dc
ADa2cCEB99789163D85faaF03e92e77D
090Da69eA625dAA35ed7b36164b524D6
7cDb56c57eA542aDeCfe17BC2ad038de
e9eBD879F3A5Af5Accb178A9dFae40aD
1F3B187Ec8a7446ef9eBdeBbD0DA1B85
5f5F0C5Ec5fACA766eCd014fa8CDf1BA
0ca64402Df7FbE455A5AEF5D85a7F9D8
1E8cbF8214aEB990E386B07Fa290ffC3
224eF313Ed92cAE3A1E6FEC38ffFC0cD
a2e8AB305eDAb2b04ced339fAFd9BBAE
5431269aE1ec5dbEB76b92Fe288aDD27
8c15CBFffB3A3e3B4c83ce6c85dd9cE1
cdfBC8e3fea9e7A7444387da8BC31BDC
8fDAC4c7721bF8aa49BDe119282eeDC1
8F29BbA3D90cFDc1FD983Fadc7FA72c2
3d3CB33354Ae9ffffDBcaCdf7CCEACd6
E96F285ecb68abD0F54c4D0EaE1BcD7A
cf01Bf146C6e4D4c217DDCE96dcaed7e
0FD4F4931dE9C83B12418eC5824fc0FB
9EA3db8A68A3ae4bC3D4aEAeB35D11BE
41931cEb20E308b39CB5E74cb3f19cc8
B7D1CCE9584B3AC8FF1B87BB1eC44a33
CcACBB85392ECfBD0Aa912ebbC74dd7f
7a9A99F2b9ddbED66C40844B7B8bA2A7
515F9eDda7dABD3Fc989B8fb37af8835
aE3Fc77DDFcd40DD5cf084F5e242bC10
2dcBD4Cc2ec4aC1C8CA44b642dCfcFE2
5cDEfC76BDa82b7e90B02653797EF57e
3EAE4Ec61fC3Dd979DA98DcFC22aD2df
Fe50717d6d38b1Aff4AfDf1aA78dFE40
BB74889a10dbf84003c38c8e9b4615BC
48A814Dd82EcA26CC9Bb4F3C5c033E2B
63ecd031Feb9eAfa00FdA5CFacbbcFC8
57Cb42042eDf4c25182a602c1DA81fED
25dA9EBDCcEcD382e8cc5ECCf8dDCFc3
88f1BbACA04C0b0e6Ab69a5c27E8A600
fcEe3504ce7bfAbEfda66dC97FB1Fd2c
Ec6D8A56Ef153DC7EE82a8eAF7BeB88D
bFD92a2De7A70e0F83d29FfBFB6ABbDd
29D1bF5b6d1dc60f0bca78Be83dBfCF8
0ADF7ebaDAcB5bc9A2f58768F7572057
bDA09aAff5D62A235BeeCFF2DDCf7C2A
044006B56Cfe88A3cdBad94d7eBEf536
E06118E1d3B4A13bdb810822BD4AFFb7
535Eec2bbedEeC62BDf5caa653B58d8a
aFf82d5Bf8eFDffA2E00c44F2aB83EEd
eC50155B2eda8594ba17Fde2B674B011
DB62D1Aa761a0BDef0c8fF9eCd78bf2e
CFD2EBFe9DC3feBc2BBcCCc16b5D81c2
Fa0ce19fA08F5dD8Eba2Fd4B7a7dD3Ad
7ad5e6FCD0c662b27FD1058BE7FDa9E9
3bE4F2d61d3E0A27d1FA7005Cb4656AB
d4c5a60f86221d3Fdd6feD35b454B0d0
F4c20a34BacE7250eA29B0BeaB10Bf09
c58F5b1b00b93ABD4ED7051eFeDD420f
466A13c9eb31f7D23E6bbaAD277c8AC4
322EfbC3Ce7cEBDaf6Cc4dFc55ABF111
20F28C52C24f2AE569f18b0bCF5Abe20
be9F5bEAaD1A7f1A462E4C52ec2b9c7A
3AFa6Bd37bEDA9232f9F3DAABECe4aDB
2afde5ee30dBF39c87dDE28cEfE91330
88cE419DF2CB7c17BE4CE9eAB9275875
ff8A571C0164aD883Dee310Ff7dD6655
B9dcE3caf17fdaeAdA6DeaA7AC6AE71f
CA5B2aAE30DB6b65BF84bB14Ea2b4d3C
B6c791e7A56CBAb2EceCc4E3a20CAeED
c78f1a3CC24d28A390def93E6f7edC7A
7bE587350c1054C413e2FdF2fAcc4F47
CDC3bF8D2CB7edaa7E17eFd0deEEE2c8
DDFc1AaBb3b31CE8DDD307De21A3B6Fb
B6D4c70Aad8DcEfCdeC1f8329D414D1d
34f1af4bAbee148BBf84f6Eb47aef084
9dC1cC6afE9EE8AdFbbA8Ca98A8D8600
dCfC2FADBC7aAF2E1641Bc5Bff1d3ACc
c8EFD0C8bCaAA0C0Ee93EF7bb4CD34ab
A3FF045d83f8fC92DEfBf3e44DeBfcBa
5cfC0E376D1d5C8290c5bDbe961E3d5C
0db0b62F8CdA4a94B9cc0Ce9fCDAdEce
E8dbdc534DA4A0e2CFeA9f244f6ef0D4
fF9AAa21BC942D6B95A9BaEcE32de25B
1Bb79f2eba5787A3B6d943E486E1dFd1
23Fb83cfe9FB9E94CAC6089d4f23fc04
adcB773bcf8cCbE8CFEb4B6BBEeB2A3D
D67BCF5ab430a799FE6FC36Af355ACdb
Ad07c476Fdea93Bf7fA7Bc57A07FdCf1
3a16eCEc6f19f64fee146eEEdaBD9B9b
D223f6E31ad714f381AE830d8B2CbDCd
da843478Ce069818dAFcA288abBa0F34
6aFE5F6e26E5BC7e5882b0A88b005f1f
47CFFc3d3eAb41CeE5CEAAe0f7079D76
8954daBfBb1f2eC6F5f3E7E95AFf3eB1
c2BE1088becea7F43f85ad13eAb43d32
eF9a3C9F02725c2B1E7Ac61E530212E1
aeA14C280D7fb47816B9082Fee067580
f0dbc6bBaD63c3eE1672d829053d5B2b
4dAD5E16FeA10cD2Acad79def28BdEA3
8dF7742D9d7BD99e7C2AC0d5B9BecC4b
fcf1A7c3AD48d1726Efe605B1abc7Cfd
51aD71aa2eA2bbbA6dEfEB28eEad2daD
0E3D7a36C7e580b730FBc6cbfB03cFa3
CFFbCba1eAF40De20A3aAFcFfB8CecBa
fBb29C028Bb2da209D4d5A7C015c9De5
9453943B57A05fEC0AB7ecf70c94b4De
fA4dE8b4caEBf12dE0a75769FFa0ce24
feDeF4b68AB9Bd7d9eD354C38Dbe1B6B
0540eaf1B3de953c3F4754Ce8CeeD47E
0ceC0aCCDCd8BCB473f56642c5a42FCF
aAb4FDee9DE3f59fc3BFdeCe989e065C
390bbe7d99A8Ce99107FaFccc9e167Ae
cbc7a60AB1aa0617bc35eBA0Bec7fBbD
dfaa521F56DaC2C815D0a86a3c5E6713
Aa1741CEc605F31C7cdF1Ea4863972eC
8F9afDee7add904d73a4Cf0EDcf3d77F
c09C19ada8F6e6ad06DFbd77Fda6be2A
98dB738dFa5CDAAcA6e01Ad10D81Dc35
eC7fffEADAc0ECd0391BedfF8BC9BC6c
4c8d4BBfDFcECDbA71186a613743ae9e
5F1e3F8A4dFf19fA774f31CBfB153C47
5329D8419102e5e341B0aDDF9e6fEC8c
1d30279E3ede4ee3a3F6C4f365CeeB1E
81241f2Aad5BA73fCef035F1D81C17cB
beB6D953cfF796ADfD9dd4BcCDDF289a
788DeeA8acc8DBDaDb869aBdE8CAeF0F
DC9aF4257f75ac6BD580C32138ceDC2D
cdafEEF72a7b0edEDeAbcDc65De3Fac6
f1125d433e64DF91DD1748eDDbd61aCB
bcC8E58df2F5E0D6ebb5DeCf0C28EdAe
44AE64D0CD7356d2D6a5F75BeA12cf97
af6c5bCBF3609F0aE33221b950ccd2c4
eb140AaDc0eEaCf2fB28FA3A719FC994
f7aee09A1A62c8Ff544F2F8C6E5A7753
Ee0d941C52aeCC6B7bE8A6DCDe6EfF57
4ceC637ECBDFd42755A14E16749d9dbd
7bBA3d4aF2CCC3C8F3e3AC3D1EC50BD8
aa2022002deb0bEDFF5dbeb63AAaAfD1
a9de7cA9ACe5dd6Ff10e31ccB5960a6a
5B2C70c39a0cFb8A7FA2cd6E80cC626A
C39Ea2a0ceCAecF491F188BfAAAD8e2C
dE42Db2b6DCb365D82eA1AefEcaFdD5E
4c6c1335E2dEe3aC216894dd98BD6e87
e313eE743eFa49aC59749E8b86fBa6F5
ee9798E52B98463f9377c72520Ca29aE
598c34D5EcaDF3148DdDbda0c08829bC
CebFb7A7eD1B49394C0C09f9D7dc0aE8
7DDeC7D6aBc5820a288eaA80eFef1b2E
b2444D5a42Ca8727E1912cCf461a213C
fb4566f1fEA0e92Ada19268E72CF9De0
116Be0E5cfd7Eef7b22c0f4Cb5dD25Bd
987d7cdF05c05e4ad68d46F1B56a9219
7D1Fa2d5ffcEf2Bd1b6C6bA6430B8fbA
8aFd41a4e68b6DbF6bA9eD1e97d6DCDe
bEAAeb354da12d6EC5Edf0B79Fc1C631
b590d4a7FeF1dF3c1465D1e106A67f26
2ae692ba272ad662f202CDDaBaEeeAb8
E0A3eE58b7057D414d72031a192CBBA4
EBd3C5bB314bF21FF485959A02bf47ff
691f7fdb5971F2F166f468f19949e9aC
9A5c1553b4DC27C5e0dBe7a896395AF6
F57A9C3bdf3F3D18c3c5E968EB1af1cD
14A21DE65fDD70433a6fDeBDB88a84be
ddEaBBDaECd93c1226e1bf21C7F0f779
C8Afcd10DaEef1A5D3C2E4BA0ee83c00
eBA1112fCEBCc3FBb12303a193E3d4aD
723525ad1CBDcC9ceFDBec102cFe85A8
ccb5Dd31D87AC39fEcdFaFAf29c39Eb6
aF16C0B4CbfC6ead91aBE1563fB29b1b
bf5DFE3c20041f279dccD4ae98Ff1E7A
b0Da86dF09FeA7e3ecDa8DDBe143e14A
cCd5227d0ddBaDF2eF7F6bc5B5428dcB
54E2bC8EF8D8DfDccF89fc98d66B6dc0
EfB46a3Df5E2CA5c58fcF877b6a831aE
CbCcd35bC1bCffBff6CDdE626C444D65
494f73fdf32de0EBdaA04ea4AD4b21Fe
fcdb71c018c79ffc278df71B35e2dFcE
62BbbEEF0af7bfeB12b612cBE60201Fc
ECa58d87BDc0FF432cDbAda75b7d60C9
d8F4CFEbe3b4D7Aa94ca58d49ADdbe8A
6fa19D77ffEC0CF667ca875E462eAaf2
6c36Ee3bDFc02B7F0cDD9c73881b7cFD
38BecB2fC22eEDC74B6BbF919FEe4B4a
0CA2c5aBFc30F5fB2E88a6bF3C5f79E4
0cD9cDB41b0fd6B40aF473dff2be704a
E650ad0ACbF73fa0DaDcE9dC00f0becb
bdf7e3B5c16eFa62Ce54DEbfCB247cCa
a2b9BEB2bF752B4FaFCAa11fA8F1CbDc
3d6553CeA936c840F6B990B636aA771e
7CC96ca00cEBaf8badcEeCEB32A64E0b
D3d7518BE182EAE5Ee649a2C7ca6E2EE
16a23D89B632db5C3C5deEBF4E78E55F
ABB0801C5EFED8E7256aC4ED24446e91
DbBEffdA273B21800D69f40c5CFd6756
c89AcDe1B5cfd66D1bDaeA24b449dd2d
EBf2Bfa2A822aA30CD18936D9af8071f
ebcf4870EC7444484C5e6D32cC1038d0
ABcEbEc172C9c6F8F9df70E3fb6A29ec
c65bC4dEEBdE5d9Ccb29e5CeDe7ADbe9
4bd3fC4B10c8de595Ca76Ca1b536473d
6D1c76CeA5fCf03Ec7Cc67a4C599b9D1
c2dbb1d816CDD905E5d41a9A73a0BC3C
Ab6B84F57dE41bA7AFd7f9FCaBf680Da
5bAb5aeCEB073ec1Fa2efEbE07C504Ac
e4bAe9CbD0309F58B4BB54909ddbef03
A6dEeA95c3621ebcDC9D19A1EC48DC12
B985B99B3eBF143A7eFF7c9F5618BD0E
a2CBDDCceaa8df20C4Dce3A4aE8E1fFd
7C0f5202dC1CfbdED94ADB7dA86036A7
AF1370d80cab7e63367d5E1a8fA800Ac
ec65D09DAe60dFC5fD2B93F1FC80e9D8
253FaACa4ccbFadAc19b2B494afFB8fb
E0BE0Fc6dEe585d3f1dF9D1d9EEB9DEF
Fa1c0CA571825e5D2107AaAe1Ccefc9D
0Fa789d808df8cdA16bd31b90b6ef4aA
FAbc9EB1f8Ee30afDca8E8198e738414
eCF9d70675D92ef727B8DcC947fA1cE4
52bbEEF12cabEC47aCe8601eAf1B3AEe
57Ad1ccC7fD64C337faCbFE5eeaDBB64
e47CCfbe9ca2afdD8d0Bdeed72B3c1f2
cB9bA21bd187BCFBCb612bAb342DC9f7
00BBBCfA68Cfa9bD7e8169D03eB277C5
247eE616D7E6c89bEd610dCfd970BA55
D4dB3a09BfaeBdcd393d59c6AbDcFaEA
cefD44d5d22D2dDDEe8BfdF2Fda1fe9b
307FD78aFE9543f0Dc5BeeE6B17c19E9
B26e24e9eB221A4898FE4dBdc7Bcd8ec
2cD6Ff7d59b9df7999DB5D30dbfFb8fE
a235e5EeBe48fF1429BbAEb248fE9f4e
F1cc41DDb4270F64f244Ce7cf7592E2d
49e08fdA2D8fB4aF7639bBdCB376DaAD
a4f382BA5eE902074aF31fb00Ef4EDF6
3BD966AD61Ce61cf470c522d69DbCa03
cEDe6b6b155F7D69ae1e5b4fCc5ec3BD
Aabca1EB50dFcbE30EACDb6fcBAD5DEa
743aFBBf48Eb0cb0Bb886E75Ed904EfB
5fDDce944E2559bEbb1E58D9BfE1eaD7
CEA245dd79A21d634E9BC8c7ccA7aB1f
8158FEceee2db74Be3aBD6FEeE23FADf
6304401e35D6C2B9133f6D8b9DFA1FCA
DB5dE289Bb15eae1A478f48CD516B647
1BaBB2C5947076fAFC2D1b9760FE279b
c0Ad866B51Ea18A1F3BCfEAAbA7B499A
52b71AEE677FA9dCC67Bb7af1A28fE40
2997B47995c9ef68B3D89eb2935F5613
5c177E86A2B2e0bfF9aa8DA0bAC4A6cB
564FB8e7CBaf3f287eb39dDEFca10ebb
adbFF5E08fb4EfA8C34eAC9FAE650AaB
FcD9c17cFC3CA826AF2050a20cdD6aE1
f5b9bfAa682801281AC4ceD4a274A2aa
DaAb0a630212c9Cd9ba12fFE4DD029DB
f2dd893013cE01e825fFc3EFf3ACa38E
eBFeA99A2E670fcbEEC50715A83E118f
C42f8A16d85FE6aE6F1aa5Dcd96bdDbe
71cC45bac2F3820B67Fff3b45Dcd2CE0
b56b72D9FbD7fEAE1E0fcc30B73B7C25
e46Ba8Ee2Bdf55eDBEe77DcfB13a6aE6
C8F96FF6Ec74Dced413dC1e9Bfea8Adb
Ba1ab772534b4fd2FCE42d6B4F3dF936
7b7f64f3F5ea17CFDCC627ACaD36eC05
ae1DaDcAA9CfdA2Edfc2BaBdF68CBd0e
0be91adb9b4ae440Cbbbe6c1E5aDe7DF
85C56545A75E30CAFD19D9FaA7Ac7aED
E2A0aD5d9Ba2aa9539eAE943F6Bb9E39
543ffE3B9CD64eeEB8330Da71B3CE0a8
2af4d3Cb0BcA6014eCaFB3aeB76e1eD1
C1e6C603E3F8a0367ace59005AEcbdCC
ACF85a2f9a64cc0B2dDcCCc40b381f1c
E8bb2dBca668eAFD2eeCdb9a4d89309F
235fF5F4003BF7ec18Ed1Da5d5B89602
0a4a5Caa118C0Cb616B297606ab1E5cf
f1Eb731CFdFaE816C2e33bEeD81D13cb
201FcaB7fAbDecef0aD3BF101D6eA5b6
8B69F2110d169ffeCFCBCf694DCB27de
a928BE7fF2bbace77bA1803ccE4Ad35d
e8A3361fdCCfc4A9eeD82E8611e5Fe7E
A4bf7fEb1Ff99D76c840Db8Eb072bBC5
F4f9aB834eDF11bBfDa25ffb62f25dC8
5f9fb78e8aFDC5654Fd3AbFE4Be0fAa7
1eF76f8D21Ccab6d90d4b22Ad977b83e
1DCEa8ED5d8daf20106aEE713fe947B2
6f18D4afb1dBcfbb279d6E682DA90eaE
091F5AB4b8d9fBA2Fad239682966cDED
D2b95d39AfCBb5CB310fAfd6f240093f
4Ae7Ce04fD3EEEc2d10CeaacEF18DEC8
318D63aDf995da5ee200fAFe2AaCF54d
31CFAff0073eEF2Cef5eA1Ee7fAb8332
a7eC3ED6dBa4eAAAeaFB4C929A1F9baA
6BdE06eF128bBe830c1fa6B4BFFCDAAc
B8A1FED9Bf3AdE33e5dBa5288eb35dac
494Bd6ae6DFde8cD62D9BB42Eb55B4Bc
c82f0e77234DaEE6dA4Fa02cf3168558
7651e1BD1702890C39bCAAF9eBA897fB
BE363b0FdbdcbbfD6Dc3Fbf29FFc6448
D3ADd1Bf04AdccDc0BA8BE4cc669ffBC
A4aef61d9E8EC6F93ddE7A5Dc3f9e8DD
dA11e6F8BdEcECf2FDdAEcB9158eE9Ab
b15aBEe6eB7f8B6B317d13De8A72Af5E
3a7Fc90dD4d03efC73E65cbc8e14e2dc
cA55709A0d8a6251Eb4a522aE0d7eeFE
bCACDb94ebEAB0ff127Ec39bd7Ca9BDA
BEA6f84EFDbE75160F045558Fb8ABba5
d472FFcd1403bb41a6b1CE16Bd5bCEee
aC2b5E2eb5D9CeDF4EB1fca2FE1F48fB
044a3199B0d68dEE6B95DbFbA29fFEA1
2D5eDC2E2eaDd4CD60EdB264aF70de24
D77f02Dc224658D5e86563A8C66ff1bA
dE3A7dF1C14A41bB4F1051fb4CBA5CBa
baCab0b4fE8fd3eEf74674c625f9A84C
37D1E45E967b9A5C600FeEB1B0caF9Ce
848bAAacC27C70f9e71AC4Af0a9Beaab
c3dCb53BBC253aD32BB398A5ecDb8c7D
feF7B0A3232662BEEEa90Df9d1DE8EF2
3D3e8d630adcCFd5dcf02cfdA0d7eac5
9C2Dbf6c1bc303b0A347ABB6EF2885dc
D52989aE1E8e8de92CcA1C66A2a70F14
6BA8b8FfbA91dc16960EAcB6aD06ff5E
62Bc70FdEf1eb28e3ff8271aAe600EC5
89Fd3c9E1aC0DeE0a8F55FcdF0EDe5f1
b4aed7B41c2FF2776EB2d7acdd3D9bca
a510fe24c30Ab452B93dDE1D83e8cEEE
73FC1C3b0aa8ecdeFbfEF2DaDBaADBDC
5adF65BA05F98c35c7243fEf224AbaB3
ef174cA1411798BF8dbcDe73AD9d8AB4
ea4DAA6D0Ff5d91Be0B26a7EDDCCC897
6cc3fF4ABc8D4b7C5bE9349fa8E47aEd
aAB7B8b1F72cEBBFf34e1CbF14Bd029a
45D40BBf80ddae0Feb9Da4E4b01F5fEe
5cCE73c3b13847F7BFe6eefcD0b3CDbC
b8Cb39EBD2f96dD88A70BAF1C9ddDA80
d3D9BEC0796eaAA23CABac697fbdc1f5
3Da6984eDaD5d8E1541aead08715DBD6
e6D016a67E4c9Bfa65944FE3B289ba7F
81DFB43F34D195A60F8E1982D2eaB937
bA76BEAD86dE6b6Fb56B0a4Aa41D50FD
D781CAFAa50c4A4d9bE0b5e2eB2BdeCc
6b907dB1AbAf54FcA4Bd80679DDCD8b1
a3A1aDBe0eaDA5Ce6Dd986cBB5E91336
fB59E2c9e3cEc80F82631B2e1C74dc9e
802Bc5bC8aA5665Aa9c5920EbbacB288
27070FCef84022CBeA3B6c5898b3bAC8
fe33800D2b53Da7fa87EEFFbFb9e6daB
fE9bD4Fc0bB3DB1e1B6Dd19e71CC6c8C
8434eFfB8b1f810E5095F844DDB9eEb3
6eddaE2Ef3Df60AB0FfB45AE37eFb93e
1a6dA5FBebA005Cf2Fac8fcd8d4DD422
3fAe062d1fbEFc8B54B0099abC3B4Ae0
C02BAc20466deD9D98BcdE3eaAcafE0D
fcdC1eAc98b30Bc018B7c3cAcBFE3Fcc
Fe2AfbA3e8eccf49D2DFB2cEBe6e8e6c
f21d676fCD4305Db46C82bEf40EAC33E
dBcc1Cf9b0D8DCdd1637acff13Bbec7D
8a5D4Ab35D3F2Acb7EF009bAd385168B
DcDEDfE8FAb20B772fdBCCFbc9656790
b04D66FCB388Ca01A555e9d6E807CA0b
Ec3B11C3c378DFbDa7b0ab2fCBaA2Bdc
fADA46DF7ea565D3cBFb28ac1138CF75
A8B0C53c0d0f55AB5A25A5Afffa7B4ff
eB2ABA079C8a5cAEcF3FDed73A70F5EC
b9ac98DA7b2bDDd5f68DdDcba3dc3ce9
85EcDFD0d5De2Fe28BeE1bd61904170B
5FfC96931BA196df8Cae0107EC6BC2ba
bdb0AB85c86fB5fbf3BBe1CB88fB72Eb
b852cFEb64eC93238Bd8ae6921f35DfF
9Db440B34be7dEEcc42fbeEF22BA98dE
221e5f6d909bEba0ee53c03a5Feb617E
A54Df04F2AcBBFEbeE5BACbA9CBAb9CD
BC7eDff9b6c0beD36d1207B85b0E4ef2
825Bee4E5cADd20987D6E1F342DDe26B
82ed8E58B81194B48D8aCea7cEcB7FdD
B40d14Fb0ADB163BA93D77815c58c58D
fcc6AFE45c12BFEf4E08d01E0B56C51c
a4eB5fCFD55BFf77Ebb533f700dFFdf5
Bbc6B62DCC6C08D5e9aDDEB220011F68
a2913744a049E0B3067cc5F5F38BbCF0
039f7BE0FF7aE40cfA66F0eC6DeD6447
DEffB6171aeEF8Bf9e6B4D468A52C617
eC5D75626FDd3b277BA9b76177bFf6d4
8AEB4a50B1Ba64CF358a86db324DEec7
D7772bFAaB36dc7AB9ac9AE4ddc2a8Cf
7c0cd7B2DA1b8aAAD1FDceD9D4594caa
5a00CFff165B9721B115c1508cBe7486
71BC37fEf3d9f757dd6487fE45cfeBDa
38bA4070c9f93FF7b3EEA8cdD66fAa66
bcfa49eDe60e2dA8B73e5b3Ce2134A1D
10775F524cB4cD4ba8C8502F6d0EBbd8
F68C63C40fBeb5667affb6aE3dDf89Ba
Dd5Ed9dF1bE137ec0CC9B644dF0f545A
98EF947b09FbC80C30BFFB0C87BEcc9a
43Cfa8Bc52Cc30BaB2CAf64D78ca1e1a
Dc2c282FBE09DE2b7fca1ee2C73adef3
fD9B2E6ADe8Dd79B34DDbcF7E81Cfd3D
Fd5bA29A53c2aDe69D42eFebf39fCE76
17EFBbA6BecAbe950BEF0dFef7e0E42D
aCd9dFaadC1bb6D737b03eDcFb2Ce6a6
dCb9D7fB5bF85b9F087EABa3D5375c8d
eEbeF93E33DF62cAabC99AeB7aefd83F
2C4f9ddEfEC99fcb5C4e0DbBDBc4Aad5
b9B116F950a17f62E90EeFb51e3ADFEf
8d820aaFaC8BFceA5e93Ea414baEDFB1
FBFaa48FD3eCCbbA7E17C7643D6Fdc7F
36b8AeE705D72bf1d0ACee73b2E9a7EA
5fbC4C1cCb5b07f98AcBCaEDe4AAafC4
20aD8dDa27FEBe28F7C9CB5fff858dAE
8C0beC8853F096B38DfD8cEa08C9E7F9
f5aBBCfeCF0eAEdc5BaA81f4Dad387AB
5491DE07BECD4d33cFD97f089d1a9B5C
d9C0bBc27C62eFced1A3cBEF928fdE93
B9fEE3f49df86dcc5Fd75aAAEC8ECF42
C0A0eCaAafAd437E6F5BfD2a68213267
1Ed51bc1317fe0C84cd489CAFBc3fb79
6B06Eb1ED2aC57b6f2aDBAC59Fe4F8A4
F0fe05CFB4d28BebFc3F7Fe38AbdbfE5
4D60e62Bf3Ba086a0Cfdd298aAB8D3aB
9f7f51c386B1cC8cAccf03BeBBc0a3e0
3E12ce5B95FC0F8cA1592eEcA2658EC9
4CF9902efaeBaDe310a1623Be9b2a3fC
ea4a8C76Ba7DfE787A51E343bDec6C44
8b3C0cb2Bf1D45f9e0deC5cC0F66C2ab
6c4bCF2A4f22Be4c49Bfbf3489C4bD4e
835eD8BfaB6a7e4B06d7E710317320Dd
f8ADDa4d6DCfFdCed48aFFec2a4Cdef3
799aCa43687a33d16b215ce74E6bbF55
27aF022aeAd1b7FAaeCACAcDCbdEc84B
9dc8e75891D7a8CBF6cCbe7DAF348cDf
c6319960a4fa845d0a1FC58f26ffaa7E
3Bfd3cefCF21D3FC81Ee1A275fCAE6a0
18f8ea6FEaAF05eC4Ed3E5fd5cA6FE7B
dF4bDE96d3Dc0b9e4A812963EbC2ae01
6aCfE6A35be23FC91FFF1aac1BBecE25
924dB8feD4eB9758792d4D0cD97e22c1
4A7949dB17E11E188DE6C5188121A912
0bd5EbD5A3F46EE7A884d7D2D46b90FA
cF0EC176Eb64359C4DEbA5dECe2Ce40c
52DfDfEf416900EbBC530beD8D3f4dFD
EF0cFacDB6a5a2d42c5dCBeC02c531FF
7C1CBDA5167D4c89D8F83244bAcd3c6f
2FB295ef10472B2A6636ED4c39e0CADd
C49E84F8243BA48EF7f84CEf6BC74cf6
aF4d53B661B06834CDa0aadfe6173B75
ceD2c90bdf23b3EB4Ca44a1Bb0b5A5F7
B1CDe9cf6F33fA6Cac0eb4c66F8D710A
03eBbcD2496B0Bc35cCF261113aFeEEa
2d4b7cCF4dd8A2e4C6e0BF56b98C8fC3
Ec6EFdD9BCf6D5F8bD0EEFe48e2CDeEB
ffBEef7FE5a06df9C2611CAeD0c726E9
Fe5df20cCd6031B7c61A8425DFbb0efF
Bd1B73bb938470d30FDBBAC93EdE86Ea
2fd6a9Af5cCa4e43CE579E3f63aDaBe0
2aBF4aD0b41daC6626D4F384Fd8a09ef
595eD56651A040f23B1DAD69FcB23c19
BAA3D8cFd79dc6ebB0Dc53b06Ee6BECB
4E8dBDe0Bd3f34E7C596cf645d070113
Af2c2cA650dBfaA2c9c35c9a1Dec65E1
ecA87DA5F97FacFB49f5C9bDe14C01fF
1EE2A0D6EBbeC4F5b724Cd2F0f6039fF
cA86ab5C87eaE1b1CEfF514b3F9feA84
337aDA89b9F3d697CEDe2796b7A7C710
ff1Be5F8c0dFAAc8F7Aba284bEaeFc7f
BB912f3fD3fdFee8b9550DdD08D87cF0
B57CE4e98Dfffd3a2CeeBA6B7a4f83A7
b4AE046BFEf07EdC6BD1335Ac3B88eF4
2B58a4E743110AAa44d77Dd1a3efCbde
79d1BDD16E289af0dbaaf4a9ACbbC9aa
8a988711a9Ab06CA4E652EFdfCeaC558
34dd917abEBAC6DBf6AA65edCc95Aadb
7C6AAA1974bB5b734DB8bFB44CcfCcbc
dedCcACb69FdCecA074ea7A344694EdC
daA4D6D9d4EbDF38d4FbaE4EaC8b24bB
Be0Bedc3db2Fe22Efa8BC3E7D7Afc0e7
F92b04b1e6A9Cc5129BD42ea04E0Bcba
bcaF5FCbcC707fD2Fbc93a2921d715eB
cBb69F2c6336baaFCCF059df3c2aEdEF
4fac6dAf9fCe2557Fa192FdF1dC0EBbb
16A93d072DD79470D225d90B1bBB38bC
4f5720FCe6FF3BBa6db3c00e8eDE36da
D1b733f89A05FEE3DeEFAbBbB21ABc59
640bb2a1A95DeEEB281C0cc923B1042a
825EFD4EAc03c724E20f8EE3ffBCfF1A
E5Bc9ACD3cF4BDCBeac4fe6f2D5cff1b
bd4Ab3bfC6AeeD38766833F1CDcaaeb0
81A8Fcae921F1df7a94EF5C3FFb65D83
B064CfD5E6Bfb171F80AAEF9Cc7E990B
29b283D9BBa3CB82A34D3bD6b894257d
4c6AE937EF4Ea73365F6287358eD52be
f599AFc2149f2a3EddbA8c740bbECDe8
9288dDcB2af4C3F8e6fD7b36834EC1b6
ab92a0685Ed61bCcBc88A2862E47Edb4
80b0C1eEbDacef8c0eDf65BfEA01fFA0
EB6Abe16DC9e739d891bEdF0704F24b2
Dec066c0aE68fBBcBaa5f6c5FDEFAd74
91DBa2d70BdC32edFF96D4E748e19F54
c191b6dd350EFdE0a9DDfEF7AF3Ad30e
Fe55BbF906689970acBB05CFFfcDa78B
3eFcab1aA2DAA4AbbA09B69CaC06Cc7a
c1A049db7cAE0BbE51Cd9c9cc80aBCbC
b8FCa687A13fE1E9aBFfEbe277e88189
dFF0fcCB5f9D71474ba43C9CD5b0EA04
CbCecFF770a45bFDFdB99ec4eFeC93D5
BEE70e7EfdeF23b5daA7754e693aedDc
927AA3a06f1dBFd8727fEbFd832bA33A
B40d9dba1e0A1Bcced5cAC73C9260a6a
81CEAE08DCdBEeF347ea1b0A88Cb7C7E
5aBf4Cb6F5A8fe7521CE4A4aACED666f
F65aeCADAc5eAA6BFe5BB7fe8bBf10F7
a5da2dcA51Cfa3B13ad611DCFCCe094A
a25bAbE9490E66aeBFaA5cb858491EDB
fC4a15016E6AbA9Dd493f6Bd1692cbAA
E3Aa5aDaEfce1D1a857e064c9c7309b9
A4f3aa12cE67b924D3B9bE016D80680e
d8689DEdae719BE0B5ab0AcdED8e179C
2df7A2Cac761Af4d5910da8029Ce5B96
b48ea3CFDa86EF05D429d2B7B361D4eD
ABdb1bF4E9B4A7babd4dF7087Ae7A3dc
bF42e00e57BfbF65f594E7658C2BcF5e
02Ec6dcD0336bbbE5d64ce62DE7bA55c
f514BDAe88CF3FbEEf01cC7368A6b9ed
A59D24f6BFA8497A22A24afAfAbf5f7e
dF3a81A7CAE04d87EcF4e18417Af9DE4
d1067c669AfD3fD28C17507a0C9aE3bE
bCA06A70EBB3e6Cf9B9d5e122cEd2c48
c7d29f08BE130bAf2bccdeD733F5cC1D
3A2D606a04bE07d8c2A0BA58fd7CB8dE
aa4A4A0FF9A4ffABd1ec7F2AE2B3Ee4D
4b77CB21DC06f9E6fB0Ec2daFc2BBA7a
f65Da390AA28C2231c696064fbdcE9Bd
53Abf2DDE44a2D7be6AeDE2aF7409db9
ACC639Cf1fdB33C1AB80EfcDF68736EC
1A96beDb6dd6f918cC814C43ea99be14
d4e94829FD52E8C1bC6341ef71FcB0a3
F4B3CCf9723cD9658275C7e98c3d4c9c
F50DDFDfa3cE5B3a6E46836bEDC5C0dF
3Bcfd27E693CF0D0fdc633d5CfcD8d76
E36CB4ED3aa80b7Fb66114Dc01D446Ac
1E6ca883C11fE7c309E7cC34F80B25DF
5B24B196Ccf87c0EE43dB991Aa4d3aCb
3495be908eB917D791E79d6c6E7152Df
6aa4f4B37FA6525Aff0c1b294c0edCcC
eA8f711A183abCf0EbFF3F644ABcAdB2
911Ff9dDEF2fcf01E46AaBECA31068eE
9c2F2C7e156efEf4c9769d5aD9CD1CC0
56F07fcb181F4dd12ded08A4d4Ae04Ff
1dE0fEB0D0f1D6f1857d6a7eF56b4Cb9
EEF9FD9dFCc852fa3488daaDEEc3dB8f
FB2476BD724Dfe3BF757d4F3De3C3e11
5B5d62E46bb05358e370Cc2956C923E1
8bFCa7c064c70Fa4d86Fbb8f379A2CfE
6B54cE1e823acD1a4D59b1C533fa6C3d
de2BABab3a1dE1b86Ebd1Ca151CdB1Ec
dA2dFF43d1bECd691Eeb988DeDDE5d87
f89CfCCea4Cc75403CFc3F43baDF51bB
95FC59feA7AF40E3Be9a84c6A1dD6B64
CDeB0BCdaC528Da48efdEa40EF4093F9
7bF3ceCa83Fe065935eD9eeC1e2FE8f5
47138Ddde45bc011117dDBDbe5C424bb
b80ae20Aa1fF6bdb0AfE62762051EaD5
CD57FeAF7F27FcdfcA0B99FB8ab90d7B
9CF01cd0Cd8b120Adab769C6bbABCcFe
50BAbeAAfC0C3cbCB7ebF49B06fdf9Dc
E6BdaeC85A06c8E3EEe59E3Cea39e1ba
